## Title: GemtUnitFrames
## Version: 1.0
## Author: G3m7
## Interface: 11302

ActionBars.lua
ChatFrame.lua
ConsumableBar.lua
Minimap.lua
UnitFrames.lua
WorldMap.lua
Initialization.lua
AspectChecker.lua
ArrowOrganizer.lua
FeedButton.lua
MiscButton.lua
Tooltip.lua